"51146"	"51147"	"51148"	"51149"	"51150"	"51151"	"51152"	"51153"	"51154"	"51155"	"51156"	"51157"
dnaA	11.0153717913155	10.2403308162658	10.2986483802782	11.2282748187138	11.0394976261042	10.4046133024567	6.03410367579993	6.56427901061446	8.38937775576849	8.20511899039004	7.95828837333132	8.49815516738156
dnaN	10.9970700049655	10.8539203299448	10.8098482597882	11.2651988866245	11.1956419988989	10.6558243443074	6.59279730642388	7.38586860307219	8.52305393524364	8.26019399949961	8.64231895807174	8.93400306215079
ychF	10.0807232089674	9.54453692595565	9.55325893113301	10.556360315694	10.0917998030286	9.30944318942448	8.05200680023028	7.25634882448727	8.48196359522034	8.24662109898147	8.69591081735992	8.41733050079338
mfd	9.72581044857338	10.4124839386092	10.0785326323431	11.5459834625134	9.86024479560301	9.16332158268239	6.67546514680428	7.53874723141853	9.89903719424072	9.74415092559289	7.94187516354668	8.41733050079338
tilS	8.56991244292056	9.27991632474824	9.12240359914851	10.6365445255179	9.54198042327343	9.11327966147786	4.36627670304977	6.09487779034005	7.9078346157525	7.45100140996556	6.49342212801963	6.78099682128757
hpt	11.1684089485803	10.846094930387	10.8959910786735	11.9301908465865	11.1167280142345	10.8989829801262	5.3415475691832	6.56014228235063	7.85809602519987	7.49051450288896	7.91058785045617	7.94941403915915
recO	7.3906799334671	8.15369310537481	7.48180041446191	9.83364706718727	7.6822826004098	7.42862428890476	4.2270393499365	6.5350696825127	8.30764575523745	8.12863375156271	7.44999196913904	7.74147223766514
plsX	10.139797683841	10.0371037736957	9.56417261569393	11.3235154468446	10.0094093182987	9.71569453486355	8.88428090142776	8.70977794378327	9.87326744171515	9.61886691922184	9.54977118254038	9.66945981120819
purN	6.78177941172998	7.68165679146054	7.09791929303526	9.51559448023029	6.79416758506368	6.64073398897799	10.2941092656168	10.4474183588171	9.28087521898446	9.98576987185072	8.20001975852785	9.28595513841654
purH	8.32121221523414	8.66964080313644	8.35350390725374	9.9092359622995	8.18064037678839	7.99672119625265	11.0666483931455	11.637291355762	10.3677840540077	11.1069601271054	9.44229321892686	10.6629553387243
purD	7.86444614767778	8.62536972834526	7.83026288731503	10.2230502740196	7.66216776486426	7.5611696470983	9.12310130383077	9.55091071580267	9.19024263881261	9.6513216214639	7.90424813366729	8.64238769476326
purE	5.72211340197681	6.61003784632397	5.60512090304972	8.16069456132881	5.56307830324655	5.68052276873135	7.48940464405809	7.74596792274953	7.25572452965987	7.54782625824838	6.22835325653703	6.67763404860258
purK	7.49657166719864	8.21269970299332	7.54310116754424	9.62160045700993	7.5241052711724	7.43069481558691	8.84414136007119	9.14284902324464	8.76231988710146	9.25899309378416	7.53177774267698	8.26032733894799
purB	9.69971838346019	9.9384337641268	9.71711912126907	10.4100435068886	9.60339837453196	9.22844562584817	9.24691176493413	10.2017070883957	9.60349734629291	9.64695680146403	9.04805894341658	9.24381068876666
ruvB	12.1974666254447	11.4544434307693	10.8698397399054	11.618424368409	11.4591940782808	10.7568597400366	9.29926609342487	8.67481332780547	9.3482461628061	9.50727825604856	9.89916441289712	9.74752038447993
adhE	13.136226684744	14.4019731474554	14.0692256110072	13.8053305860877	14.5686249041869	13.1596142340873	11.8527382008885	13.9781644890068	13.184516271248	12.782181571069	11.1020098418054	10.9708411528368
adhP	8.92239366377748	9.94638533366366	9.14467780134104	10.8402220777818	9.26892076030522	8.04752668109203	10.245327677991	11.1893303963101	11.0071633305146	10.9095880466598	9.85382676905906	9.68710806201451
rpsJ	10.4126014623433	9.70852507857443	10.7579397700558	9.94608709305913	9.94925852918407	9.80499727144195	8.80285299233828	8.85361175464341	8.24650662820617	7.9481844939266	7.08176904228795	7.68928078442652
rplD	10.6980412443076	10.0963029793693	11.1011444268196	10.0212867855127	10.632833260999	10.1393796827824	10.8179316167128	11.6076597017502	10.630179265494	10.4855958873959	8.71776666624895	9.3315541774719
rplB	12.3146775238836	11.4597949462006	12.3666233642895	11.414100836434	12.152563441164	11.295332877722	12.1157681515038	12.7931133700357	12.0009824997696	11.9397215022362	9.93485059365668	10.7116373649322
rpsS	11.2807469325795	10.4118214254017	11.0769636863138	10.4382826876846	11.0773959038903	10.0509527165729	10.7440403305269	11.4882339156433	10.8094697700658	10.7738773600152	8.5328810624777	9.57128796719291
rpsC	12.5155907109779	11.4730875263473	12.0567589499555	11.6278038296975	12.297264510575	11.1356913921887	11.9070890467288	12.3938923270914	11.95883570303	11.9048340483621	9.65798191312093	10.7775996534735
rplP	12.357761198939	11.1093928141211	11.6205816557741	11.2580873328791	11.9960398531682	10.7394258413662	11.4998006758196	11.8069401772463	11.3960067544615	11.4058437513536	9.16668869466847	10.2429064442373
rpsQ	11.8353231018579	10.7151045902356	11.018332235949	10.9846068510724	11.4264752977845	10.1563702448165	10.930680226436	11.2300967493617	11.0336865290901	10.9373115513345	8.82457901753328	9.89672503243488
rplN	12.3167119557085	11.0799471506128	11.4954907951361	11.2567004505941	11.9711166930018	10.7122353031981	11.4814084452699	11.6836615315324	11.3293012170262	11.3797766147823	9.33089399337273	10.2519305002654
rplE	12.6445873602719	11.5959932802703	11.9734114782707	11.7561774415827	12.4926658630614	10.9782711205565	11.8331148298056	11.8464353592893	11.7095579742633	11.799281560525	10.0272083476503	10.7518068648737
rpsH	13.0277164187073	11.754017212304	11.9703790212041	12.1009965499839	12.633626135555	11.3096076202513	11.6886948653886	11.9958538487348	11.8529430451312	12.0761311120924	10.1621815621307	10.8874901833936
rpmD	11.5425132759091	10.2455455362126	10.3142472019406	10.5547489792714	11.0596288306941	9.7661701534588	10.0023169342265	9.81843286267878	9.79561849650404	10.0469830448647	8.42777656738477	8.897874402758
secY	14.8018808171068	13.6478582956666	13.7666328997143	13.8281532480815	14.4531578752769	13.3093674312825	11.6763411860513	12.0174185554055	11.9908103456714	12.2636545378219	11.1523637169403	11.3510412249668
infA	10.9399470362586	10.3559739618316	10.3124360060463	10.2295284774738	10.5710646324601	10.2372627658752	6.97288968647541	7.57814758316819	6.8330021988698	6.55345166168245	7.45578366666279	7.65505723914448
rpmJ	9.79792134502516	9.30296667821586	9.06270484840972	9.23485272949124	9.40888650637002	8.9438603030644	6.3003641482765	6.83126468199341	6.39160734836061	5.61751068961705	6.4123488453926	6.49068221409945
rpsM	11.2275946274294	10.5418490502937	10.488667348244	10.4864090220167	10.8842690387673	10.4502336491645	7.68610110871234	8.62518624457778	8.10933301643749	7.65446045558899	7.93152126753784	8.04690440241541
rpsK	11.2103518718892	10.7403025760682	10.750314816807	10.4393309792255	11.1587897325417	10.6892864786349	8.0172085384371	8.6966475477139	8.04581347849277	7.7988036296442	7.93152126753784	8.19206652399463
rpoB	14.57308016199	13.6795093964759	13.461632687652	13.991876331579	14.1828221213468	13.715451615189	12.2372566820534	12.4620585120167	12.4244454806372	13.1654556730771	12.9270956047433	13.0613757612603
rpoC	13.6956170404741	13.2316506972742	13.2747598009542	12.9444619746139	13.7317625581119	13.5731560673524	14.1595159994577	14.0329457502748	13.9886268021551	15.0708811473755	12.9861294905803	13.5597734570777
pepA	9.6941646675637	9.46884568869205	9.83967088640184	10.1055834043844	9.81995894917385	9.15018775760269	9.557801649288	9.85054399897138	9.76480388377921	9.75267048873765	8.74758299505143	8.36687100862095
dusB	7.95855888131591	8.08443019452953	8.25671927657717	9.15202135850079	7.96770086207753	7.63665539568381	7.07455053028457	7.4363936929115	7.96136147052628	8.23079972203769	7.01272645480385	7.32891653996014
lepB	10.7347968428429	10.8832119289443	10.5798951928748	11.2209784370246	10.4929308745609	10.5623649623217	9.77228405500336	9.93762688605938	10.4174997958595	9.69502750187	10.6074314106041	11.0295042954352
srtB	7.33704694516762	8.20660091556563	8.31266923523129	9.17737390513287	7.99529783850392	7.15321969522276	6.16703227429082	8.455168787129	8.59489116334522	8.18555392821568	6.49904240746795	7.01487370807061
tnpB	2.56709456786152	6.74520709475039	5.17489890009515	8.93136196815341	3.92041105039199	3.57836975935623	3.05152126862728	4.56328205566783	7.19537955807922	7.26259281616701	4.56260343594682	5.35227986173249
nusG	9.18776733317988	8.81703069055357	8.74665980971806	9.83683275890003	8.77113496664239	8.41375691988761	8.28340449638812	8.04726181185342	8.34701159269313	8.46791760623111	7.61436253563424	7.79184132880098
slo	11.8021470884886	11.8999759013209	11.9665177673753	11.9444129865918	11.0385226662414	9.84591328150265	11.960611604965	12.5279431910265	12.3608759812258	11.1086925202799	11.1808358583882	10.0778695560542
ulaG	6.7606796705884	8.19945292445082	7.45952757560678	10.0883117979637	7.09356082422812	6.41253264011346	8.10765002670341	8.90751946050719	9.50562838810022	9.48076802273957	7.12602754319039	7.70370308877901
polA	10.6808280438633	11.0654171507451	11.1689172176984	11.3575543033754	10.6957807660877	11.5819111864549	12.1332404473468	12.3901103534787	11.9584953302074	12.2480198703011	12.8731368072073	12.6402825170601
perR	9.67220440068211	9.8719083869923	9.88563961636314	10.4267009260543	10.1171420088331	10.1355766737245	11.0965423881476	11.0530191530997	10.8506483499356	10.9773698034131	11.3129411317513	11.054100859609
tgt	10.3182751724255	9.89926594001921	10.0684497980212	10.5831650946432	10.7608331489485	9.68913015636402	9.2431522316497	10.1917143622405	9.77566402407301	9.82400374126648	8.49681856545682	8.71893163583909
lmb	7.88896131662403	7.91773442518352	7.02395669582603	9.47186706448418	8.09169561895118	7.97560361376271	8.5279639392766	8.20792046379648	8.88774512593232	8.68859802375843	7.7988301294632	7.47619855286981
smeZ	6.29671194989686	7.30724110606097	6.5347813349965	8.89106634017836	7.76004949361125	6.17135459460001	4.0729142980681	5.56118963288066	7.324956866844	7.04823902713807	5.87771110287238	6.24330727141316
pabB	8.10107136487626	8.84674632749035	8.21743906932231	10.1943610317655	8.06436645913244	8.51480768649622	8.44267921581478	8.76832603945213	9.33011827691324	9.50464904682245	9.35820830886027	10.0494498537641
nrdI	10.3492300049417	9.81758817338547	9.64534640526867	10.2896625976793	9.83979482479374	9.54604953951965	7.73617577450936	8.77993371570324	8.92909618436521	8.87249954270541	8.22567002215554	8.42169922586024
ska	11.3349873715766	11.399473134425	10.3386055010392	11.3336989474782	9.77991655738017	10.6310527110592	8.76664708997993	9.53308165492261	9.60465789985738	8.8779275246373	8.37067402436812	8.36233279275007
ugpC	8.87245331175913	8.8493583345327	8.59995256917206	10.2339654279896	8.48657437597816	8.22503580025512	9.45364129008511	9.71432087214667	9.88525512963775	10.3324148230733	8.75347302157099	9.16000291286993
yajC	12.3981017611654	11.0285827861944	10.3991021098899	12.5153934473883	11.7610411036781	11.6369743829114	10.1032393299261	9.68849701057882	9.41194809811024	8.92194583256921	11.2833233888583	11.4498870489935
rseP	10.8431080019116	10.5871522611187	10.7337834155163	10.9430837646826	10.7381927944359	10.5028443387639	8.45573280871647	8.90344347907917	9.2830515375609	9.16054571880003	8.76751174133308	8.73774151190611
rpsO	11.0808549099945	9.79811617314317	10.1466249650252	10.0517654030762	10.7110364798666	10.2016335103675	7.95237493964404	7.43413508037478	7.67133893474802	7.62086362851409	6.94845232150044	7.1787035762863
pnp	11.9179531093095	11.1846232607168	11.2763501630292	11.7156524466462	12.1183677119924	11.2852129384752	9.42339523339733	10.4319379035674	10.2384332874751	10.6260798765329	9.00328122831135	9.18848322113548
cysE	10.5689588920003	9.98044381499117	10.0427739883258	10.2491889261992	10.606232998312	9.62863698907469	8.17707679078284	9.37073817103689	9.28087521898446	9.6627659722471	7.69492543038495	8.07306126425812
rlmB	12.8572695748257	11.9503458342757	11.2711643378881	12.7987839292426	12.6566203393298	11.7673143687576	10.0564480815767	8.51088442542563	8.92073389065076	8.04545558721443	11.181928197707	11.227975739514
rplM	10.739522746687	9.56414760769803	10.5549449601878	9.66884253862765	10.429786862587	9.74967862373176	7.96338489693366	7.81529435482759	7.85419800025997	7.91556686317807	7.55893797614149	8.35778025617366
rpsI	10.0495286445897	9.09033345646906	10.100289959098	9.02650627511496	9.95464367194376	9.33121990457772	8.3095247779871	8.61923392194438	8.35392955384446	8.33807014743706	7.61177099846805	8.59546451415222
lacA	5.98119179420438	7.55776765835244	7.08099741640205	9.28002225835431	6.5533214478858	6.37000692613573	7.96885852652784	7.20428408711521	8.37448660018623	8.51657792499878	8.00840823002637	8.01834272706719
lacB	6.4318782392049	7.84892020876601	7.34269367574019	9.35969895516666	6.76805413486928	6.50583140092409	8.203628771551	7.3788396575362	8.57371307149194	8.57956131397702	8.03766511460868	8.07491158927101
lacD	7.5812469457135	8.68507612213369	8.39125473577248	10.0940920051971	8.14919045668916	7.73208621581805	9.36992379640401	8.40646092652301	9.43952615875553	9.52122035035147	9.22295998225041	8.97024351336764
lacG	5.80689527102381	7.77665854160098	6.84365436230381	9.40475949861631	6.50444814681121	6.30828302308818	7.68166352295194	7.3115300492672	8.68542736512797	8.5787282579125	7.64510321994558	7.14739222170571
yqeH	11.5532899920688	11.0440567631651	10.7706219693233	11.7402455628851	10.9816288920283	11.040775117713	7.10469732494807	7.35276984011568	9.53636155879322	9.41974181584863	9.14802938935673	9.27392390938039
yhbY	9.48655459705378	9.21253306445755	8.78895510154773	9.56381468904772	9.09076211123787	9.28046076099959	4.78563968134024	4.98963062117601	6.40765416345624	6.36144140132084	7.22769378293101	7.32581195437162
rsfS	8.08276919168706	8.03480663219173	7.99288818191994	8.73476660799089	7.80293778696252	8.18266381477503	5.13633681721842	5.81139923923999	6.97617727501134	6.89872404525942	6.22157031088836	6.77190030412342
brnQ	7.95391877988963	8.72117554912083	8.46298352332364	10.0909824639071	7.7732379424944	7.6509347270398	6.88683734965987	7.35754498088422	9.00928060877072	9.08276929835762	7.87212480772148	9.37199841194531
sstT	10.603192837371	9.8638573044124	10.2543220600576	11.0800003142596	10.4312733371155	9.28046076099959	6.60222004648107	7.42960721962346	9.22235109848761	9.18099954658703	7.38469981885887	9.01237046853007
rsmG	9.79230060095727	9.01148202272744	8.69754669630522	9.7220715234451	9.35476928155696	8.37986633402715	5.75033598135739	5.50203819681413	7.34175801219676	7.20545396505186	7.15835257333505	7.4789961101544
htpX	12.8530703797552	13.0843891346962	13.1705285265678	13.0296384365545	13.2198956566183	13.3004077198792	12.0111144525215	11.7242036479904	11.4128333803795	11.0857143443907	12.4337567281921	12.0809117697811
nrdR	10.2292368025708	9.14663395462919	8.84300861511748	9.91928891294459	9.3709708198818	8.99652764521656	6.04104918305445	5.45825123831266	7.20765217118812	6.83037729130727	7.82591553015074	7.75076202523446
dnaI	10.5598266879496	9.92518614637744	10.1547344073526	10.3985912247569	9.96740462582454	9.62366805688776	9.73850089327279	9.44272224059971	9.9786265818311	10.25891240804	9.89544022142176	9.82981502072419
mltG	11.6306784693505	11.440002704317	11.5809379858241	11.9994659148222	11.6304746245	11.2428300903201	9.34207458851531	10.0613212047008	10.2343152766584	10.1272297370104	9.25403755125139	9.55878105525175
greA	9.59682187329825	9.03748422226646	9.21561267156304	9.51956483178197	9.06953716367114	8.62107605503669	5.6808857438711	5.79740955706187	7.15158412722124	7.06261075827304	6.17317519424738	6.87319963700722
yidC	12.7971766844751	12.1540280096256	11.9965583781331	12.9891707852674	12.1553543480688	12.175184327597	11.9807319060425	10.6287066942386	10.9888360501286	10.1811888217466	12.0818813091312	12.2433595193226
racE	8.95836014177472	8.60773666663192	8.27277554913293	9.65145832139118	8.37730272249721	8.07426191922215	7.35373226805571	7.69405700955176	8.24947752490331	8.0776543399392	8.20518642474174	8.50914510738343
xerD	6.38208732745515	7.49075449782274	7.74688995798309	8.258963728711	7.11739569902576	7.05998940192968	5.550671400115	7.37413459608209	7.51717273352442	7.34916313928684	7.62725084969551	7.64263509160059
yidD	4.73844727643852	6.08441429631847	6.33312987996846	7.54160661135883	5.5803313992081	5.40529410260704	3.96018316892417	4.68984197255082	6.71759724487894	6.422145846254	5.35272687098399	5.79092946297658
pflA	8.06996105741907	8.10424882631487	7.76365149042455	9.28547314428052	7.89372106685883	8.34296333537667	11.4167936390754	10.3091378235873	10.6606287832131	9.933294425395	11.3272289044851	11.5548760172287
yabA	9.60276244843942	9.4440029874369	9.57802273170772	9.93026684662776	9.25152450167102	9.19411960215795	9.84055468210335	9.8802977980858	9.78593155957799	9.32754111387118	9.36052564995166	9.42591103218101
rsmI	10.6303461884632	10.7711074018114	11.1441104385987	10.6655007184534	10.4383871725234	10.6518361055286	11.7565927868926	11.7683517703382	11.4196083786216	10.9719867900354	10.683135170358	10.5580542071449
xth	10.8675741987589	9.76840635115661	9.46982467223214	10.4615149724665	9.65469285985812	9.7384393075392	7.45861047186438	7.0505873033934	7.94312739905637	7.85492976130926	9.72486215472063	10.0764848781164
lctO	7.7637629570669	8.8987391477164	8.91638890086227	10.1527868160165	8.89265020152122	9.12675223637609	12.9797033433441	11.6226135907447	12.6080954537309	10.4016468633347	12.946057678861	11.911996318454
metG	13.2165889974315	12.5988421310115	12.4916486813218	12.9706799864572	12.9015457607908	11.8664384770666	10.5841300261055	11.7860602593858	11.4202676538337	11.4504715935523	9.31425368073817	9.32534968937462
nrdF	10.3406649369538	10.8198658740473	11.1945694578609	10.9972376846194	10.5842198156446	11.0540994911334	8.30520410691345	9.03669179235619	9.49189557802862	9.83451060753113	8.39197565580746	9.28115468008345
nrdE	12.4209772186772	12.0413230368113	12.402639051167	12.6823035303509	12.4433517473437	12.5279740578307	9.58538270348523	10.038829066305	10.5160837768227	10.8765841476455	10.0130387519271	10.4366724303095
glmU	11.3116021538676	10.9583326642335	10.6794122205744	11.4633705747562	10.9616060116161	11.0304018161694	8.76139983927648	9.22549354566307	9.44601538685609	9.70154719728694	8.8390540250335	8.897874402758
rplK	10.3644618665878	10.00905193218	10.2728019207091	10.4601384218935	10.0785804040832	10.2340059674792	8.13873968015545	7.96516930451348	8.09784024168784	8.06224091536501	7.14765783679701	7.46495375811722
msrA	8.88713107148447	8.14627742335109	8.36553228018242	9.36853089100103	8.95018826674327	8.31633388251116	6.76628049900085	7.33834884832501	7.89650773753996	8.02603013141273	7.08550955320949	7.61746523898768
ybeY	9.26409589910819	9.02483057913534	8.90200839849902	9.58733357185483	9.06111260274978	9.1788027736822	7.8453487427174	8.00223270014339	7.89081077436733	7.87949127151888	8.39499323229114	8.48011601105941
stcA	2.91143848389281	7.53361021084936	6.15054187335602	9.42536263452137	4.78943850338626	4.73030327125295	5.00041072169746	6.02456078394366	8.39743588296646	8.25185656795042	5.84277622642656	6.30135870999664
shp2	0.9503316320771	3.17590681687387	1.80386683810643	5.34862533372295	1.39399013836052	1.34644856589493	1.54335708344515	1.16105398213456	3.68957514773178	3.61055615690844	0.869410211064202	2.18949310934141
mutM	6.02903537938244	8.01050713085598	7.39252919298368	9.54510915391796	6.79416758506368	6.80616950834329	6.99809233507652	7.6750552266995	8.68323184763838	8.72594778086526	6.7924246014285	7.10093015530304
rpmG	10.7424405671356	10.2207951367261	10.2383305003298	10.6619128183399	9.9542301430908	10.1257055807239	8.81708471213257	8.45405452424616	8.65550219316819	8.93111285658799	9.13815829520721	9.50900942238837
secG	10.5292215946152	9.68824248026413	9.35787563796797	10.4806500283955	9.62538279641128	9.49600790695088	8.91201271118421	7.38118644651463	7.84833114375031	7.30350507005689	9.34578589626682	9.75504137373599
rnr	12.1541308591967	11.7228413073235	11.5861943755111	11.8784422617703	11.5623755957587	11.3490056916697	10.504396360932	11.5444130741719	11.1222486056671	10.3850648240781	11.3866106773278	11.7324191203033
smpB	9.62190209995992	9.3894111062978	9.19946376459576	9.52681555184125	9.37344729405756	9.1152120350337	8.22055267562845	9.62901600424208	9.21932375351671	8.41569379475432	8.63595614641075	9.15825862957573
pcp	11.6350329541447	11.4526193840871	11.5361888405238	11.5169834387695	11.7311810622556	11.170334878878	8.14841988714386	9.55299384010535	8.91513197821497	9.29392799970086	8.19136731607847	8.71893163583909
ccpA	8.50372488630235	8.3518318059418	8.56212726577544	9.37073045267683	8.52160555677258	8.58713470167393	10.2546941169024	10.9704839685908	10.8077072287141	10.8490392428134	10.2036449967401	10.6512215229867
thrS	9.93999736192416	10.1560724269966	10.020124757012	10.9033720188029	9.75021044834358	9.56502467209888	11.1079566394197	10.6938752140247	10.9657639741789	11.0308848550209	9.76681603185417	9.36218257234754
vicK	11.8565061985107	11.8142508250423	11.9859650249026	11.9419496206147	11.8818531010738	11.7401275744778	11.1523306091456	11.2525415396509	11.2623058497152	10.9776858266364	11.4530856464056	11.0477554053948
smc	7.5197816363697	9.37316705464445	9.12417464634271	10.9112008258353	8.30779170460058	8.34844980503197	7.77001279270569	9.55559352281021	10.2181038588074	9.99266626718325	7.74308435474921	8.79049262934497
shp3	0.736441568455173	2.79734744445051	1.80386683810643	4.54011394566708	2.11582878500619	1.03420791027962	-3.8671403002484	-0.182117404143052	3.03687683649439	2.83500231330035	0.869410211064202	1.50253666061538
cofE	4.70937651429517	7.84892020876601	6.43176682591117	9.70299488894117	5.65551445445592	5.03252480446653	3.96018316892417	6.26209765414787	8.85203109199618	8.34200304676977	5.851589572779	5.81769665650296
ftsY	12.0248735788379	11.6485845358499	11.6014258519865	12.1759672509184	11.9120835067368	11.3015689474234	12.6915794730443	12.5714299147157	12.5790158578537	12.9427471267093	12.2682632969534	11.9123844284116
lysS	12.5950348168069	12.0487286725747	11.8730644585626	12.3809121455213	12.2411642634359	11.8592502783579	9.29273383580039	10.1236170321755	9.99465066307544	10.0294086080652	10.0315776607491	9.95515420794885
thiT	11.0038201191933	9.58936655005718	9.30576684068389	10.5982614357287	9.50009939571908	9.16394403043632	5.21214151039383	5.77616734134905	7.69985513731892	7.67954297596682	7.60135804519685	7.93929263863651
pepF	10.8135316704981	11.4855243310611	11.4453708298508	11.8147053834471	10.976547357851	11.1227827478631	10.8641916140159	11.3678184275993	11.4696703110009	11.5470114420271	10.6846772709229	10.7699101196459
tuf	14.5924750600761	13.9875579070123	14.2844389440496	14.1058569310033	14.5048285722827	14.7157132968992	13.7909048532881	13.7591402243113	13.0461452507007	12.7861112921583	13.7572139070455	14.0675107626802
queG	9.38794641880987	9.39120476237346	9.04161878975799	10.6577156260596	9.38944158025887	9.30267598927389	9.2949145429778	8.91320655711495	9.93638796212353	9.75119243494306	9.86964060143598	10.0718596630935
ftsE	8.86505805092177	9.27797873427498	9.51866771798314	9.41189731397925	9.45345910952287	9.36571774621566	9.12555387096058	8.70697433029674	9.16135215142856	9.17770234625928	9.2803859474766	9.221432573357
asnS	10.0721849637237	10.3545956627776	10.2677368347103	10.3555573862718	9.97313084562966	9.66162677524951	9.30360455790381	10.6611761633508	10.3905029613973	10.1351842653907	8.77795185201645	8.76550433833109
rapZ	9.56826519599039	9.95459660665163	10.1875710686458	10.0918715883853	9.81404577342061	9.93685667114263	9.21271797707196	10.1451800273865	10.1390102641607	9.91690859104532	9.05188776720753	9.31521013694695
whiA	9.56725286979856	10.2630379545526	10.7137316025783	10.0161438220054	9.86553223780355	10.1199428312322	9.77176223117306	10.9609060410419	10.7016100134918	10.6978479500606	9.33561332725422	9.75734765834494
ezrA	12.8289884823085	12.8895316087277	12.8851130309935	12.782836489123	12.7804014529139	12.7748583208939	10.1811497862508	11.3206076389874	11.2672612239963	11.0030565112842	10.9607434817602	10.4413417010821
sagA	13.7960359536651	14.3563910928173	15.266473548732	13.8444677235478	14.6455577289141	14.8867901516161	16.4812502760434	16.2903315196501	16.5665848622783	16.472787650266	16.6939323816013	16.5400861674415
sagB	9.86947619194939	8.82368726137288	8.95935139703466	9.67360154922753	9.83575961376776	9.45438076744223	12.0116670095367	11.2804688595948	11.9411438116998	11.6871328009406	11.8380338410626	11.1945390877455
ligA	7.73159281236887	9.11767535482252	9.09917992629716	10.0949792159356	8.29217009328856	8.5926932382556	9.01349081038963	9.27744188345497	9.69405682316224	9.70803756199191	9.13635627190398	8.98999056043306
atpB	10.2869490704272	10.1505234188339	10.5805403283686	10.5267485368203	11.0575128045057	10.2598567923141	7.72974202265881	8.3404573967046	8.76647386459173	8.8163594402903	8.44680406574155	8.17836233185698
atpF	10.7783146125378	10.7427632153247	11.0936313907927	10.5730123868615	11.4053024068282	10.6337513233942	7.99413108044292	8.76113615421555	8.5070062539034	8.53644994901408	8.28054493053232	8.0260146320425
atpD	12.9849072940179	12.2610171206996	13.037336751736	12.6508983342732	13.0808700391283	11.7997170109189	9.47495545331785	10.5883980058347	10.4852259398216	10.4502792158018	9.39936139678669	9.25201157742275
murA	12.3204718631959	11.6663764583424	11.6785788110564	12.1947116525014	12.0200459112688	11.5082125817124	10.2037641444198	10.8092570698894	10.6841497663089	10.9324289500912	10.7130639071089	10.7512284215249
pheS	8.68264561115217	9.31907401772387	9.13299741640237	10.6850762413263	8.62290849863068	8.15912985545203	7.29393369923536	8.70416525789095	9.51368220860376	9.46552645716647	7.14407523390518	7.80081336572932
rexB	10.1329719923723	11.0517319547162	10.8925315012478	11.3733634002763	10.5575161693794	11.0404361894591	10.1791835738348	11.5724091955617	11.3521111854801	11.4134561256715	10.2908751107944	10.6356354462451
addA	9.87111783014566	10.9660251828183	10.854629692689	11.2365398887457	10.24266547259	10.9656528875873	10.3856230815716	11.2320482598531	11.3180248999773	11.6687546560202	10.4980173029106	10.8324976411518
mscL	13.7948472218405	11.6767082660418	11.3713721143377	12.6170195989152	12.2609439594198	12.6600867063299	13.6874279314144	11.4213934813823	12.0546211914846	11.47575038837	13.7238904049125	13.5986374336206
dnaG	12.555955221442	12.4534067670818	12.4626041797859	13.1684953875624	12.6654890406867	12.1261184232862	11.5435586569211	12.7994333363853	12.3691797929678	12.0830504164789	11.2865767357896	11.150033259287
rpoD	12.7546773915873	12.4188184305507	12.4779210972111	13.0643096621685	12.6341425540081	11.9107796452826	11.6387755612812	12.8559446208736	12.5069066416435	12.4089339294457	11.0690909305989	10.9520873729395
rfbD	10.4046889205476	10.0932760539015	10.5170284665674	10.5589347164563	10.4315704483196	10.3729294720768	10.2798674032337	11.0060829177404	10.9571579003918	11.2221338471456	10.0125476542734	10.4319879983978
pepT	11.2435251563353	11.2556322154509	11.0680971065628	11.3075301725022	11.070544259027	11.6725127846988	13.7798212424535	12.8300340196829	12.9186774875557	12.1097518415377	13.1666377689369	13.419054686243
infC	10.271182624185	10.0174958723025	10.994324909524	9.7157406315991	10.4100204936568	10.2513888374489	8.39196962554284	8.33925088061742	8.17954954270017	7.85492976130926	9.53753448040346	9.90350879983256
rpmI	9.31262524308272	9.23667638584204	10.0242405942253	9.06142217964628	9.54856998654514	9.26139232589882	7.5442081530421	7.99458928841623	7.58694927334011	7.15716284005448	8.82569765043946	9.22560294242733
rplT	10.1357061454315	9.91056567335672	11.0034948164604	9.60923373749247	10.6390215081659	10.0079174099726	8.19275472015597	8.82545243729209	8.24947752490331	7.80023372521851	9.28527314464606	9.70931582864046
aroC	9.78491719921728	10.0905187815602	10.0999900100449	10.5434189497835	9.90329740567627	9.8271730527133	8.82917257691205	9.47439137593587	9.81980490545297	9.66786687588111	9.11272280965543	8.93094152717279
gorA	9.69648131458271	10.11894003536	9.97928618780542	10.9420980148619	9.79477432020623	9.81850174538001	9.70007317737177	9.66942136829438	10.2169660025592	10.1601809195498	9.61850928266461	9.50077404914742
thiI	8.69010499456285	9.05682413226887	9.32950015305246	9.87503885538206	8.84258639297724	8.32860009340561	6.73663939067226	7.99305573464468	8.71689252199852	8.56785452634123	6.77399882476239	7.04161239018006
rplU	10.7498209470454	10.1208330421613	10.9267595277849	10.2981622361684	10.9903274797886	10.3116140956597	12.1901941697722	11.3614438321645	11.7464336568724	11.9399647923589	10.6635621397505	11.0003491789611
pyrR	8.12328297196543	9.88565200954675	9.18539571810968	9.2564251994453	8.60826428165718	10.4464012969237	11.8445735329436	12.5403991836377	12.2994911846549	12.9586436181636	9.907112597117	10.7790191544715
carB	10.3477568921713	12.5357815042398	12.1986163877703	11.7374073441585	11.2104350006792	12.2752176228822	15.0378690858577	16.1392349591345	15.9567121390407	17.0035741698207	13.7827463024796	14.5745583179246
rpsP	11.0436707183738	10.1912438799956	9.79737826348694	10.5550713905633	10.1141835747178	9.56266638416109	7.424491243235	7.47864886400228	6.9398554598232	6.90139170049166	6.81962939867068	7.17180398896866
rimM	8.02937042567109	8.03250994739242	7.84322389629619	8.91738616215837	8.26174745720004	8.00924494764562	4.0176495444232	5.15235629900754	7.06317186760473	6.96397884288917	5.70367602071309	5.70751253528738
trmD	7.6286007098271	8.11622753599923	7.84894717905858	8.98499254094603	7.74482785843045	7.57621201834002	5.85651440541184	6.57251705181462	7.68457033262883	7.90630020464282	5.59240704542088	5.95262759048617
pfkB	6.26209637396854	7.60644680443813	7.05894493415944	9.20228861337283	6.17599886594654	5.96967885072511	6.57376516239086	6.9146319125086	8.24799284128892	8.14448384206213	6.59663411939693	6.60265855671674
mvk	9.23315398494404	8.39984067227799	8.6016485604162	9.54640700624322	8.85858449637201	8.45706338688712	7.17899344865838	6.89505871631188	7.92651733839236	8.15010265059544	7.53725084900335	7.46495375811722
mvaD	8.76882895139892	8.58362414837172	8.60503457332091	9.46502056145752	8.47509009313903	8.29489800204974	6.86351846673774	7.00870233239209	8.08292800012045	8.38170892740116	7.24786250339016	7.51215037914203
clpX	8.2982110684911	9.37633997746701	9.62880772168151	10.1243898108351	8.85060762001259	9.24736434024969	9.00552360456233	9.31720427404033	9.5853883489512	9.36715913321906	9.49034697994278	10.0737115288699
rpiA	9.93764913409797	9.43185510515369	9.44027367526281	9.9041830953405	9.57193845972378	9.88456833132866	10.4697475100347	9.27995939868943	9.53453591609406	9.30706504127698	11.2849509793805	11.3601744064846
arsC	8.85347843014675	8.85846329672692	8.96199454318143	9.12968290290013	9.08925635575519	9.28561779809885	10.0305090904502	9.61213203829474	9.47104810672296	9.24067663417401	11.0515090254159	11.159873286175
deoD	8.94361295382117	9.16457337283251	9.35787563796797	9.40547487141431	9.23867786877987	9.5321348125325	10.3985249363908	9.81322809932366	9.89335023041677	9.63378254407228	11.3125422222577	11.3316325605214
pyrF	6.09233238378489	8.67480428029794	8.87981585656969	8.65639744663549	7.12623322526796	8.6515766837133	10.9142249254925	12.0156258896381	11.2545634983051	11.1644472563979	9.07370846201408	9.65654391387789
plsY	9.58436654804089	9.52383868185098	9.18822032327007	10.3713882608997	9.73440251094632	9.1299415332288	6.80351696137423	7.63431776084575	8.07625053647364	8.38457177766454	8.08887731307013	7.78281314594409
parE	8.82665642689345	9.47139137577957	9.56199647356854	10.6178386444792	9.08472963684694	8.8740607898319	8.82616009247189	9.75786508836284	9.95106165151848	9.94723891064117	8.34437764848296	8.82498459797104
rpsA	12.7224153962213	12.2633449054496	12.810952792388	12.4949532547588	12.5813625340793	12.1604440415219	9.8730290531684	11.5186635442843	10.676719871107	10.2497827340657	8.94167411222598	9.23804220265513
miaA	6.5996970307607	7.42573631487339	7.07368397910888	8.87875486368349	6.55768346009316	6.57485891874567	6.4277189793869	7.61650044556391	8.04752137820218	7.90762766273737	5.80697436407163	6.17594178503896
hflX	9.3168476080163	9.56056557289346	9.5373967499331	10.3996687463999	8.79442366369843	9.20080783039655	8.73701359042073	9.89638403714739	10.0287707323617	10.0171623542428	8.14193062032661	8.74589433837462
recJ	8.29332163862573	8.83097418906272	9.17061795559711	9.59048259441066	8.3142511141337	8.6037464718855	7.79487971872921	8.3488748748633	8.83532074681582	9.17990131688397	7.26775315029299	7.71086053259789
nth	9.95632880002981	9.47181522058512	9.43362376767002	9.87916496446976	9.67892139422604	9.0846367309975	5.67196458938973	5.51918752289827	6.84483672280862	6.98173343097078	6.36389001103269	6.29502270548184
rfbA	11.1654016820921	10.7490713692971	10.7154948574812	11.3645610890395	11.3411187181492	10.9518424143487	9.19024463176689	10.0159807063701	9.67374239838084	9.84701866760648	9.34734456003552	9.32923062024644
rfbB	12.0184066758217	11.450793028283	11.3769534823231	12.0354965500196	11.886953752404	11.4769945935737	9.43200750663354	10.3668200572599	10.2199982938694	10.0336703558599	9.41133282848332	9.68165408621454
lpdA	11.5680410089108	10.8413464332731	11.0862304600985	11.5454967618158	11.0749254507764	12.3924593621319	13.743357926423	12.2424722370967	12.4398080333018	12.1814679502737	14.8054588791752	14.4022690557509
cas9	9.19499476129985	10.4561932646195	9.84933949963331	11.7134876901409	9.9190635993299	8.93440606348915	8.46866935020872	9.00812640514615	10.4785946171934	10.4049405223841	9.31186074746765	9.42953098761757
cas1	6.72481284960341	7.73630386200652	7.15908947398665	9.12534710679865	7.18098108287455	6.40412718744818	6.0059823632732	6.57661849905832	7.92280009886242	7.91292531446923	6.53778299478322	6.60265855671674
cas2	5.54421402924198	7.21303292233319	6.4469412376876	8.78290927762754	5.97542090264549	5.37120175663934	5.550671400115	5.77616734134905	7.53919086251299	7.49934580392046	7.20380161633973	6.51269186262175
csn2	5.75093117645014	6.98736756867749	6.60410497559336	8.27314337860565	6.60902410116092	5.7418429899342	3.80562658925526	5.45825123831266	7.00810297204721	6.99178166342594	5.52789181369405	6.21673734116355
lepA	11.8501734594128	11.888513224792	11.9110897561152	11.9947198924323	11.7844919904174	11.7598194465748	12.0485375278281	12.2477064731894	12.056954754233	12.276876276006	11.9226717209771	11.6301091025366
msrB	9.13954481585359	8.74240943335749	8.37150906733071	10.4256434135923	8.95184630747005	8.57688809253396	8.6476927892467	8.1485448559115	9.04818782705919	9.00986028735679	8.99236441105342	9.04671746860692
uvrC	9.38507681904761	10.1723317793391	10.0109007400951	10.7664053371233	9.62174191185769	10.0203447611885	10.2029902113613	10.5250782068745	10.6483009002938	10.9606806071632	11.1830197105848	11.3512320905085
pepV	10.3409611321721	10.6110139830962	10.7166691646413	11.0658157448742	10.4745933756616	10.6389095966396	11.2864184632331	11.634711989062	11.5081644931371	11.8801967920402	11.314336447009	11.3649084708927
mnmE	9.2857978947718	9.53767045360756	9.6437010426553	10.0860824602396	9.68591207804769	8.57501722850645	9.15866101802438	10.6090685963087	10.1632363238172	9.68034664246514	6.99692437641914	7.16487124623419
folE	10.1674502079001	10.3012199606838	10.059530575978	10.4741861835599	9.97842777550101	10.4003935641735	10.3331836611803	9.5767360458103	9.56942864014485	9.50245437298486	10.1967446021136	10.4258391620931
folP	9.73214748403463	10.1992006534871	10.0751795112342	10.0352205741046	9.67942185370934	10.1964710196699	10.6415224475111	10.0863475088092	9.85241270937641	9.74749066187954	10.4585395637043	10.627148422475
folB	8.2049598906041	8.91066839366365	8.83582135955834	9.08394076724454	8.16070627172376	8.68491951651201	9.2655638655554	8.99669303804649	8.84909623672512	8.71461653149846	9.29257303814519	9.51310954701163
aphA	7.93049173986842	8.24380583087734	7.39644264839297	9.7134315836945	7.5241052711724	7.4674649750524	9.21117928004586	9.65252073917041	9.73861252602476	9.33150278164882	9.71584037522529	9.82487559190986
pta	10.7629228050076	10.2182713220164	10.6318608950337	10.5624670332825	10.6351569653814	10.5165557666143	12.2478016327083	11.3361136863105	11.4575174833703	10.2946104525146	13.1998558034713	12.9524274282678
guaC	7.92733919361198	8.26645876702334	7.77421741137642	9.94165515513037	7.73330530224914	8.64177921972529	6.75787357046239	7.77481366551039	8.18110632020776	7.90097812418575	6.53778299478322	7.39853798888557
prfA	10.6108277815552	9.93874040549109	9.66575665596137	10.591361882474	9.94009916687642	9.57207649403871	7.30551663331688	8.10235240478591	8.48700702345428	8.3807533801483	8.56270682318038	8.76206306213034
prmC	9.63693658690668	9.43663969372693	9.41493574863335	9.85998200214419	9.44052659643671	9.05070938886771	7.06435996526435	8.45739473441663	8.55221945763888	8.43423399058938	8.11838904556716	8.47592090068984
gyrA	12.7601695208664	12.5264269655602	12.2836781713478	12.720173237934	12.4308481459639	12.4815410094642	10.1425186173775	11.105412628284	11.0664850860592	10.5810323719412	11.7885516037103	12.5178453584351
ylqF	9.56014662687179	8.99800880427632	9.10576813247681	9.62160045700993	9.14177109727974	9.36950041091783	6.21080734652416	6.7354643145973	7.84833114375031	7.73293644114469	7.60135804519685	7.92909972823
dprA	5.42410402071577	7.37225271071544	6.4087016842104	9.0087262372313	5.60583023924815	6.14637457054893	3.05152126862728	5.195666523559	7.52944648954133	7.43451978180317	5.00320504905862	5.6490951727341
topA	10.4452029324935	10.0811044413798	10.4017815265855	11.0312390715054	10.8303074161918	10.2935246202999	8.57657617805598	9.7900130953157	9.7517676403493	9.42716570387919	7.86561341022495	8.84246939814464
citG	8.41310079632876	8.57812315673282	8.1679305328391	9.43730493858407	8.44125918233394	7.61314575391039	8.74128439642081	8.31490621528374	8.5937227232342	8.46611683740426	8.14193062032661	7.97143428518788
citD	3.42206404626515	5.24112296641502	4.66669239555128	7.25770263358276	4.34058136794503	3.87450638472174	5.46029567172801	6.05427713285521	6.74732541669559	6.99178166342594	5.53884669785024	5.302611743583
citE	5.12713737630856	7.31859607222895	6.68951585771269	9.0586961760335	6.05779576388804	5.66653471753594	7.29683816275808	7.55338863674496	8.2715663585169	8.65816375320824	7.0399703321551	7.17525790722229
citF	6.595730936806	8.0255978740542	7.51457792033241	9.64783528402575	6.98762531219712	6.61547209469335	8.203628771551	8.24447103186377	8.90008632243235	9.51513725611826	7.87212480772148	8.03934307334888
citX	4.93959796679818	6.25958789102178	6.11773066248618	7.58771908354826	5.5717306421549	4.97693429239352	6.88297694975674	6.7681097308582	7.24087326793513	7.93131538500244	6.67320256063773	6.74890487100634
citC	10.3451014927267	11.6619257896232	12.3661245566721	10.9457911089179	11.1760928456141	11.8064101444145	12.0158595410161	12.2104966889741	11.7982004396979	11.8409579033993	11.2325678643361	11.6809564828195
xerS	9.97629584833546	11.121734247212	11.4388630252581	10.5714195523136	10.4846505626863	10.669477829068	8.38106296027612	8.9164462894117	9.35722539684061	9.17494891126144	8.2740035298857	8.35473723110374
guaA	12.6241671840127	11.8991882891576	11.8488128961838	12.65368597638	12.4364104604099	11.5113953738014	10.9196523973102	11.4570095593604	11.1659474927371	10.8137189187342	10.9507809516408	11.0143979009127
cls	11.2856790924972	10.8238556634217	10.4815466574216	11.4057231074257	10.5586047409935	10.8415862198222	10.1230126483655	9.86193124889344	10.3187709627026	10.0208471576639	12.1788462379946	12.4231548685566
coaB	8.52055862070438	7.89642259587209	8.04741732192907	9.32759965232762	8.6800426666206	8.03397094599205	6.6887940453361	5.98190195884864	7.324956866844	7.42713373723483	7.70954265324469	7.93318553822546
coaC	7.87920518112266	7.74754940197384	7.6354049432612	8.95988819006486	8.12440981257495	7.63306336987737	7.90366964182946	7.46985530602827	7.98294244142988	8.23185989559434	8.50801103607898	8.21406187587197
phoU	9.1698722448824	9.36543220741704	9.15914654089994	9.75443935213522	8.99671134046297	9.24383592715205	7.37587619970558	8.55728231902498	8.69090158555033	8.37020037614971	7.85250178166526	8.16452671388012
pstB	10.7338949128316	10.8223607851323	10.6526659891416	11.0716866051177	10.6708296959242	10.7923162022124	9.94190661311637	10.8062038626456	10.6066232191934	10.6232547456948	9.62879961405507	9.88517163976577
pstA	9.72126689175184	9.90021097218081	9.62172096056316	10.4779319385041	9.75828683022947	9.69775286962145	9.31152468220508	10.0072709324065	9.93823035599285	9.96488065418814	8.93443318322371	9.00559586903729
pstC	10.1972026134406	9.72212764644534	9.50785522702393	10.193532897049	9.87648589302091	9.6299891874605	8.44267921581478	8.9429000708996	9.01278183236579	8.86705106143577	8.50661671664804	8.6095747623586
pstS	10.6298614328613	10.1064380987316	9.76671568221412	10.6374582590785	10.0513859721628	9.88607810698062	8.17707679078284	8.79848950163319	9.15344356856836	9.15273017904324	9.00624426101064	9.35534765558284
truB	10.5117001142993	10.3314280069881	10.2044110741351	10.9376537866658	9.94301982195982	9.9188996036297	9.34698716963992	8.66425289822333	9.49440219525274	9.39440034818669	10.5688710783584	10.4006095353975
amaP	12.5672021293567	12.7499896346709	12.7513226242239	11.8713396399468	12.5818979999524	13.4623362690128	13.717172298716	14.0716928148603	14.7754742423661	14.0665638382202	13.6927707335826	14.2733663690508
pcrA	8.1260355316035	9.21860687866471	8.85229883581551	10.2865593623456	8.47739427481719	8.73017348100065	8.97502183287459	9.56594566003263	9.87134013407228	9.64058430540159	7.62210933233018	8.48429895812596
glmS	11.8319553315433	12.4082283092698	12.7304493935096	12.0182953988763	11.8373612726808	12.2835472621563	11.5593671449478	11.1970103160244	11.1893423679888	11.4516096071217	12.487136979462	12.2098606707167
pyk	13.3525095780633	13.6618564718115	13.6833941893096	13.130220844488	13.7474501335735	13.6844969917908	13.0442652999795	13.7572217185516	13.1659643573195	13.1854643391968	13.1143301415663	12.5640283975879
speA	5.53595858978731	8.33515658362641	6.92447528373256	9.73180130932608	6.11810755570648	5.90562022061669	5.77554142313477	6.30227934043409	8.83433173168	8.33609966992864	8.16332553835529	7.21942220178807
ssb	4.60275197931165	6.9537775406108	5.87568804634335	8.2840764430293	5.2109856706756	4.12008670631495	4.126139918589	5.37592135475419	7.45160949414378	7.38772417235617	4.5839155592539	5.3276595346031
malQ	6.61936558361452	7.84892020876601	7.04155687923255	9.3478383010241	6.90444809638871	6.33947504693868	5.91060730933163	6.79299954795247	8.27302699182581	8.47240971902266	6.65317835639648	7.1296988295836
dltD	9.76959604685128	9.85803257756668	10.233142712421	10.0590581939853	9.97067953392188	9.93758488630066	9.36162533524846	9.46722954178225	9.8077623852457	10.4679331441324	10.1335609999274	9.83746511958847
dltC	7.84786816802212	7.96064471040778	8.04617233163245	8.83056291078578	7.90916503813767	7.86664443314535	6.63930737510364	6.5559936584741	7.68017333614178	7.89964453073515	7.75956723348833	7.71323847795218
dltB	10.408367998286	10.557508133666	10.741111356812	10.8806567811414	10.7432281826595	10.7628299951015	9.41673524594169	9.59454259278796	10.0855667572546	10.2834056115762	10.5861363656094	10.5191705999888
dltA	10.1814110538227	10.4940341005446	10.7068539404258	10.6886070651893	10.5556091903905	10.8406132372904	10.1135717439592	10.1681252623133	10.2211337619953	10.358616042091	10.89858118428	10.8601218034677
uvrB	11.0617537891507	11.0164316674192	10.8385385949637	11.5580979219452	10.8339083935581	11.1999232862829	9.46852980439217	9.2679618808828	10.0485209360742	9.86899093061024	11.0742769297027	11.1926230724928
obgE	9.20022842385749	9.96155472013618	9.92138830016542	10.2075469428872	9.30049600771816	9.56077697430641	10.8143889096391	11.9321596014172	11.4332269849443	10.8996158170946	9.09241835782956	9.77680363493249
tet(M)	10.8609801944013	11.5965764100718	11.7216200595562	11.4525085487294	11.5056522765853	11.3108727998659	10.1987261423057	10.8918129907361	11.0454860809279	10.9525042325653	10.9484721033739	9.79487852185745
erm(B)	12.5314441191809	11.9647212067665	11.7817637305699	12.7373928661172	12.283010490678	11.8619380638671	8.47893570638363	9.69652840006547	9.60871250105115	9.56646418701852	11.1052377641315	11.2856366321329
topB	7.77432887827533	8.77093272827063	7.58656958336528	10.5672699334191	7.9578333293172	7.05731167893771	7.44819792882267	7.17752973208527	9.15265032060899	9.4336304152451	7.72161154945485	7.61492393235903
rlmD	10.4341398119056	10.3744532572523	9.73113240287017	11.0759617910136	10.139866466665	10.1616779763014	7.93942288519664	8.26621895187805	8.9123228438458	8.78347706115635	8.99336026955654	9.04577434465449
aroA	7.87593841950036	9.06751986581408	8.65571020118136	10.2654360927869	8.03338091301049	7.83884827082843	9.04319821625375	9.80582239298032	10.2658348900148	10.6638837671943	8.73334803857685	8.83811802429278
dnaX	10.3778034449882	10.5515055065534	10.4297383368414	10.614439488455	9.90842966836145	10.4882559948958	10.1987261423057	10.3363031217743	10.2082124947472	10.353998099847	10.8690453119758	10.9192494048847
ptsP	10.596013704853	10.3949354671552	11.3022640707111	10.8037857681425	11.0105551069043	10.8380804074093	9.23181448989887	9.79793939916129	9.82479310487604	10.0367067720892	8.85995193798197	9.08486411739324
alaS	9.71625239632092	10.0741427275075	10.7824461735169	10.8183634671517	9.62434348093406	9.56124955879994	9.68740200935933	10.4333521018056	10.6063335632086	10.4604905220079	8.92819761504167	9.2642261599331
prsA	11.4180503287528	11.7244428854164	11.6351457347622	12.1150597257366	11.4087774201409	11.6572312260583	10.9973670745511	11.2211183943283	11.0960810700135	10.7455786237428	10.3252914633513	11.0548041903555
nagB	11.2145606930737	11.8130805070931	12.5486448387035	11.096485372053	11.1652357489984	11.1819051620953	9.35118468019415	8.54268057641496	9.11323698076109	8.94475509405488	9.73858689587616	8.85221226707768
queA	9.53447757054155	9.34614288655982	9.35887879824197	10.0407566256723	9.59227924571039	9.0207836134779	5.39673833717533	6.37473042821516	7.88700026243004	8.01867761873141	6.36389001103269	6.54508927869679
recR	7.50927791661548	7.69768967788869	7.32020860926504	8.99167742720347	7.11443778562318	6.89282960530201	4.34398378932956	5.83897809505527	7.6309006825552	7.5996665733683	5.96963632826821	6.45702505789982
cadA	11.067671805177	11.3086738798953	11.2001774452482	11.7957315601203	12.2829281626497	12.0421912336742	10.4828783923934	8.91887132321438	10.0455328565577	10.2461146259647	9.80871616151725	10.4588066689126
sda3	10.4126014623433	10.9551531959545	10.222159693363	10.6771001505193	10.5621369368225	10.8586041718874	12.166669922339	10.0328709747749	10.1321856176229	9.49320011055745	12.1133683100172	11.8749069939391
recN	9.90796917107708	10.6198374480296	10.2396926128209	11.0416303383045	10.0533179423622	10.6233791156665	10.9897588697435	11.5783018055625	11.6392375413208	11.8976706646695	10.7139703703256	11.0032670565646
ftsZ	12.2911879662302	12.0018805943323	12.0245645419593	11.9929361010827	12.4120753918198	12.0684429405967	10.6380910094399	10.912444419331	10.7845960595176	10.4820360435167	11.6033287716461	10.9829632602332
ftsA	11.7058520790085	11.1183542479608	10.9912552758039	11.842838331564	11.3634032171335	11.2178690295821	9.66284696363249	9.10003704181798	10.0043562550605	9.89532492684763	10.8502048272141	10.4269261568923
typA	12.9832004818246	12.2577641883731	12.3738367611514	12.4797492493975	12.7321316867127	12.4890118471912	9.82000681206034	10.16574499936	10.1600822176662	10.3605560252934	9.76390113605633	9.87405641623068
rlmN	9.46225493118002	9.79980518405486	10.1957349512115	9.71804598975403	9.89599530399967	9.37273481976201	6.94353702027289	7.65386007590258	8.23155967777083	7.96230589147842	6.91099868149446	7.13325491011391
coaD	9.29927392585543	9.32471629567972	9.35486196513226	9.39686689668492	10.1615222358504	9.0800270084837	5.19978077794722	6.64851794816648	6.96898569987667	7.03128903266748	6.70758975856951	6.5923608408131
rsmD	10.1360475505141	9.72994459232382	9.75342690926749	10.1412373364424	10.8354809992326	9.57019937592231	5.72468233097529	6.48357814856821	7.6490133145614	7.64494093121842	6.82858484667528	7.02639387810268
arcC	6.65028795184718	8.26548121777283	7.95358597901203	9.21703349193702	8.46351365793224	8.43557264265419	11.2156657469684	8.42705073151837	9.26848034762325	9.03497992896348	9.3925835536668	7.83833403643661
argF	7.63441212047683	8.62460753830328	8.87351219887085	8.95500994340681	9.48929366731848	9.25381076984418	13.0097201458075	10.2056848791645	10.4352210497497	9.93687446886293	10.2985496942809	8.46043361229706
arcA	7.31309160258843	8.95014050722586	8.63017948663536	10.1835580236371	8.98136974110643	8.76176763212104	12.5331881761996	9.88443960480528	10.3574942817784	10.004501121786	9.88420961515061	8.22909533499662
cas1c	4.98881738339349	8.29835183010084	7.18194270573834	10.013800036781	6.22618637532514	6.23908171552738	7.01582843026229	7.29668872331599	9.08024493176947	9.05308695849766	9.00031209755643	7.76687659029787
cas4	4.05105561618339	7.71926946740443	6.68632264242088	9.58228079507959	5.31771020256652	5.1677689278252	6.07528383928765	6.70581272755887	8.5255070421539	8.42962123077731	7.88934621302322	6.69217266697293
cas7c	3.82579221202333	7.39567276401779	6.34532860386342	9.21947638676698	5.08368233558661	4.90726850584464	5.39673833717533	6.46156883961471	8.2613003083006	8.21694609755603	7.58295254710929	6.73960307850833
cas8c	4.80866022739123	8.54547491256608	7.45952757560678	10.4039708031538	6.36207425283044	6.0090106145864	6.08875342909531	7.39286346889881	9.2493150809381	9.16277097556409	8.14730916855936	7.49013240486658
cas5c	3.2307360390341	7.99879049384085	6.45446900800508	9.74146591518151	5.36825079378892	5.01054496978088	4.55277912266108	6.33654309001192	8.58903947652679	8.47778185634223	6.56483145912277	6.45133839387437
cas3	4.78098373536785	8.82501489785983	7.57280166761121	10.6568146368635	6.23710596844628	6.0950782601474	5.62651208196249	7.14475549719515	9.46530975701753	9.25639065120878	7.56430919915767	7.40149010799364
recX	5.27335029773297	7.13168326775272	6.55942531604042	8.63459680768866	6.17031315851234	6.57485891874567	7.99591943468254	6.75006466094985	7.95773304632012	7.78153098750788	7.89575160762761	7.72977524596167
raiA	11.3770443493065	11.5356461212141	11.6005779746693	12.125951984633	11.5528476474622	12.0848883003074	16.406889325186	15.5872880560236	15.7124349408949	15.2503336214316	15.552167296332	16.2102554768441
cysK	12.3798393348208	13.1680127522279	13.8380642715266	12.8726851162897	12.9622373443941	12.4164919117382	11.8548337591322	12.2246141126894	11.7884032178264	11.3953550719061	9.58322733529578	9.61327295527084
pknB	13.4994199468037	13.5374698175991	13.8049085437593	13.7003353388476	13.3240675703429	13.0819980509904	14.8137038720822	14.4153274367414	14.5749016654764	14.330565659899	14.4559248280951	13.5320919646746
rsmB	12.0427371550218	11.7064568689976	11.6464866813793	12.3323637414979	11.8163544653612	10.8653172687797	13.0672518474777	12.7542048733447	13.084031668124	12.4972742223459	12.7018687460206	12.4081886378672
gpsB	10.4918307314385	10.1009684990493	9.50287228940571	10.9908169277452	9.85005604427705	10.4263072849419	10.022196890185	9.51396054086359	9.73119292619304	8.57956131397702	10.4108876022327	11.0552728871021
recU	11.5114031149723	10.9209508013449	10.5170284665674	11.5033482273214	11.0367660764165	11.0059612499268	10.4710338457014	9.87697577009355	9.69623594106016	9.20980212301852	12.055424691023	11.6686031276917
pepC	13.3810907866824	13.0135603079968	13.1304478687206	13.249466518129	13.7852558380638	13.8223226952159	10.0067584364871	10.4415272264852	10.3373901815587	10.567239192477	11.4705334021194	12.0789538859955
nadE	11.6048886508994	11.1445106000831	10.8182601793963	11.7949127932287	11.2928756043281	11.3747753831873	10.1048974970177	10.3207991213436	10.032656236649	9.75340894816784	11.2671515619212	11.0318876559351
trxB	10.9726193944708	10.6301270374859	10.3603070221202	11.2728637155223	10.5740282960856	10.230444691415	8.19275472015597	8.31858420700285	9.30106097658201	9.42020692973678	8.77563834769993	8.47592090068984
ftsL	6.09795129475581	6.29450960220325	6.11298183130019	6.73660014501716	5.71139623939502	6.10029074823506	3.55698535227907	4.9138499670869	5.32680554176214	5.50975175137398	4.35514430180018	4.75627962951138
rsmH	10.5411292357117	10.0119692217331	9.526724236395	10.5005393381901	9.81950494896826	9.73299639640721	6.37372297307876	6.17280417053496	7.57278701595622	7.61437456633803	7.44417692710449	7.62253446201254
proB	8.14786896746527	8.36558208985016	7.82446485035551	9.81330600100317	8.07657670986419	7.57246610375315	7.14715981180319	6.36052836516725	8.47055100220283	8.3912297514047	7.39377921060315	7.25576419161502
tkt	12.4380373346553	11.9714809199223	11.7093828060367	12.2334003213941	12.181557948991	11.8258136383043	11.7749359030267	12.3057631459244	11.7952809589789	11.7426705348958	12.1198804848715	12.0065186018741
fsa	5.48540861769482	7.05001970569789	6.58021876747937	8.60998112245457	5.98192713150776	6.15140529721368	9.82554844436556	9.10714304299093	9.49189557802862	9.80347089383833	10.5894330553448	10.4225732550793
glpO	7.78829746815863	9.11007171057395	8.53841553225186	10.7414081648388	7.76194095520574	7.91033033782415	9.6390116351759	8.89607756665697	10.0959199262579	10.0861995403665	9.19379968554002	8.71537731752702
glpK	7.93677624071608	8.59378495828231	8.03240605672048	10.1143610741639	7.31069034747434	7.35203430874978	8.42553103073949	8.11509773258736	9.18404488305358	9.13697092326085	7.93567174709921	7.72742442407391
glyQ	7.66122674258982	8.03824481855952	7.5693390605972	8.82308615120871	7.27404790340521	7.65802174048497	7.77001279270569	8.28513976559657	8.42002581502814	8.67307091873834	7.92109252648963	8.13467793480673
nagA	12.1529504823694	11.8342495884815	12.2054639841811	11.5966643275614	12.1329657933248	11.820592464856	13.6084244868522	12.2216707125723	12.1268785855981	12.0615959980031	11.7183142567389	10.8853829815398
rbfA	10.3067970010531	10.136690453315	10.3217265983513	9.88533208585652	9.86860765368101	10.411182033729	9.31940156380058	9.16344701322836	9.2493150809381	10.1729327348711	9.66111862406495	9.53074332300832
infB	13.3496789438283	13.5839872329887	13.725103319376	13.1992463008956	13.2467366814766	13.8629008270514	13.2832801310945	13.4308844723376	13.3059617523904	13.8777450947119	13.8961750821605	13.4122559004179
nusA	11.5521391868518	11.8311971948546	11.6595721619384	11.4765362761326	11.2671367898582	12.1543488897261	11.2017865598365	10.8304504886405	11.0102318608099	11.0991385110503	12.2702161220471	12.0878007869674
rimP	11.1948682409499	10.5081531861687	10.4512969570336	10.968237590518	10.6107005743665	10.6602428281704	10.4671713928123	9.91553467099632	10.4977733236951	10.1025200897518	11.5545720807872	11.4683057416108
sda1	8.8181712456741	8.69817621551752	8.01469319259866	9.68543084449684	9.20292221283651	7.59848552603749	8.15002695894565	7.32865414249474	8.67772839163021	8.91338112240594	7.86561341022495	7.25249794470587
trmB	10.5927838396917	10.6843474619607	10.9346866286211	10.5938746303599	10.719334528768	10.4689923456531	8.77396132536059	9.31413699691102	8.91513197821497	8.86226670232223	9.78590803538979	9.23059152439319
tsaE	8.37079191591472	8.57654758452681	8.18951795662525	10.2343681113019	8.11851668884325	7.46544658979988	4.49325085290867	5.97570355193737	8.71043855351558	8.62223046641923	6.05605349790189	6.32020145692367
manX	9.15916204995564	8.69600111056414	9.47538544705331	9.53141074507398	9.29528122403206	8.58341707685365	9.5746528252602	10.5112169331231	10.0667417386428	10.5347476066027	8.48270475410146	8.90100684264808
serS	9.54839555731525	9.53239748187746	9.05158004180176	10.2214261677118	9.118338808055	8.99862278228401	8.49039869947775	9.11562429989237	9.44407168137736	9.54231143531931	8.45550205724391	8.56155395892273
fabZ	10.7088682620317	10.6814186247189	9.5051393948198	10.6765075710719	10.1941089617035	10.4609103912312	6.71508800286851	5.91868585996258	7.17051662096932	7.16162035036222	6.10109566607743	5.84397625501396
fabF	12.5262441016167	12.4718523078289	11.0439750888045	12.4430278500695	11.9895971008432	12.2205434642169	8.39874465638447	7.61450709224413	8.99164589033014	8.9798851568072	7.89788043489265	7.69650995860246
fabG	11.6185132591446	11.7874309125152	10.1567546654803	11.6937108968012	11.1307023085269	11.414288208536	6.95828800221961	6.33169780945401	8.09123160085539	7.95204951255908	6.6929526350219	6.65801847174602
fabD	11.7993476734341	11.5835947470745	10.0567512920731	11.4547566255736	11.1020571826475	11.248563375361	7.14393747131498	6.37473042821516	8.10605869806663	7.92346261292723	6.58082041941507	6.49621618533986
fabK	12.0065993451359	11.9378980847178	10.3296791672762	11.8239657594596	11.4749911071661	11.5084576613192	6.98013548045446	6.38412138971471	8.16860480814601	7.98134225964964	6.45923274819298	6.45702505789982
dnaJ	11.220207093701	13.055272010347	13.0512890090222	11.461307912659	12.0305774833045	13.5964278256896	11.8764732761475	10.933984332711	11.1786667874779	11.5673116046361	11.6134037314128	11.607436962183
dnaK	12.7850912704175	16.5238970386046	16.2339975959854	13.3982576182214	14.9104365711319	16.7810426993348	16.0666303279235	15.5562107993958	16.0291976214471	15.9323035161857	15.4879722530542	16.0423416087805
grpE	10.5925350887613	14.4428389336491	14.305501683325	11.1694755028939	13.088944914347	14.8003434518443	14.3415314762333	13.8284695130577	14.1829578553645	14.0237068533547	13.3365983605949	14.0325605998834
hrcA	11.5046767951716	15.3032815228677	15.2916858833062	12.2296686994841	14.183153005898	15.7514563371563	15.0496071950832	15.1947732355185	15.4377386045095	15.1634435312552	14.3306221428694	15.1960943203918
gatB	10.049891061816	10.3090686912167	10.4114831247197	10.1693078419385	10.1789697773308	10.2986352525471	10.6274590695561	11.6160280600288	11.13836552721	11.2397637784629	9.24904320291081	9.61962509713934
gatA	9.67690487424317	9.89705845461532	9.94462657065164	10.0549605361597	9.93675401921717	10.0377689212	9.16264698986416	10.0700753319304	9.69242032200399	9.922500681143	8.85776635863037	8.96626146074707
gatC	7.4246135639392	7.97267396957424	7.4891489314984	9.35155524074308	7.40811547431687	7.43482697548471	5.72468233097529	6.30722426606314	7.85419800025997	7.86589764389108	6.53778299478322	6.79003634204973
codY	10.6206199931374	11.3478773270038	11.4426529546349	11.0494321771125	10.9053865219248	11.4251034778107	9.45233934597412	9.36837431048578	9.42317422845953	8.86021139570936	10.3838023829363	10.2702148321412
recG	10.5519162568323	10.7165359546154	10.8758090606766	11.2679550513204	10.6415921309008	10.3580472045955	7.14715981180319	7.47205872550798	9.15344356856836	9.21087783383586	8.45694663778022	8.58511513505006
isdE	7.00154749204988	8.5804832934426	7.93756032532103	9.51426859787099	7.1232933942081	7.44919703788924	5.23654972830732	6.58885334126558	8.32464852391678	8.26744993553095	6.04840782916886	6.48512693357354
secA	14.5955970127469	13.9512582749637	13.8231952583897	14.1167367248597	14.4386714683884	13.6918261291349	13.0256196116067	13.8973887819152	13.580851751267	13.2151172367355	12.6046983120327	12.2124895467498
manA	8.35327982846233	8.61466224938989	8.72425966518826	9.40833282063647	8.54046109020629	8.94964765157823	8.12573086442434	8.57173775466896	8.84124064173252	8.72218057778139	8.32235602195285	9.26179150260844
nusB	11.2792021682371	10.9280726908846	10.7211618413187	11.4597589784655	11.1693390099338	10.9245532402764	11.2674806413797	10.5232200052515	10.6089383758542	10.3187594436305	11.6013706264614	11.5133492393719
efp	11.9879015354187	11.3206060020268	11.2365168547129	11.9756985435302	11.9614783478907	11.4570711672019	11.6370575926142	10.4701941944087	10.55292402592	9.97567953340837	11.6814068520195	11.761720206752
uvrA	11.9311941424964	12.1281796462452	12.3092024898568	12.21413463373	11.9364690196909	12.5061107269631	13.5618348500875	13.0291453713524	12.9700671530401	12.8367695464315	13.6811525369199	13.4825511411878
rpsR	12.8218970440077	11.4544434307693	11.349837645238	11.495978296108	12.2685310789648	11.2991627512047	10.3236028388648	10.4710206770237	9.93177165745601	10.2581321244199	9.29903096829874	9.79712204303577
mutY	10.1654447270227	9.53320996377396	9.07557628733757	10.4435165448537	9.09601991363395	9.21949134689086	6.55447858459976	7.28921041137686	8.66332037233421	8.55096401749477	8.63468020965576	9.20969099551714
trxA	10.8205580481825	9.25304360931677	8.87771769617893	10.2830602251779	9.23255246238852	10.4035595244134	9.4026483898689	8.23412215970191	8.56419986501798	8.0847130651624	10.1837167253281	11.2930078081385
dinB	8.61273565288438	8.5211089922281	8.19064523805596	9.77893765910038	8.27107461924539	8.49317585665925	7.7574167290942	8.38088989139448	8.68103298388043	8.53559161593792	7.4872289514615	8.16104697744805
pflB	10.8247998638016	9.87415466200185	9.41686364775542	10.917483580357	10.8775241473674	11.1374355438974	14.0615736981405	15.4592257834155	15.1446340143153	15.1072340680978	13.4448925147072	13.6706848711889
deoC	8.678901406275	8.60464792597233	8.53930072971152	9.19237430199504	8.57852221616754	9.04463850126852	10.8649257207307	10.3420367880732	10.3581825545493	10.1820118377874	9.94002489695341	9.01622743298442
udp	7.61494901685044	7.90774453407314	8.08670012783132	8.7818077346189	7.7216899759653	7.45123826922797	10.1803636228193	9.67803663339078	9.73172416491698	9.18428922852401	9.37205684835973	8.1364509448396
rpsN	8.46293949542771	7.69913841638634	7.60697819240831	8.09657992791386	7.92950314197976	11.4676976130301	8.69579764393167	7.96985463634752	7.62633676906514	8.31524552043023	8.97027978530218	11.956460233623
tsaD	10.9196652077736	10.0811044413798	10.0175860854459	10.6991479833616	10.3584489727284	10.3141398342365	8.90631866671155	9.42235646287692	9.51058990378996	9.34724155262724	8.96216444818698	8.90621250906961
rimI	10.042989517884	9.13061765798298	8.75582805416811	9.9297696576886	9.53591343536014	9.20625704827098	6.42240941731687	7.69594349500776	7.74896607506927	7.51510718049135	7.87212480772148	7.65752888491016
tsaB	11.3579995674138	9.89547960878201	9.80770091454296	10.9177343223285	10.7513436368571	10.1180167880428	8.10267930612561	7.8814416017609	8.48196359522034	8.45889120041683	8.99534992667908	8.87469297305834
glnA	10.4635456877401	10.8949536980311	11.2534726973236	10.5691866253623	11.4402722371386	11.1251819680095	9.14179862630072	9.59555350187293	9.70654203847213	9.35309960557729	9.57460309485743	9.47578205455907
truA	10.3950221237674	9.48824878730586	9.13064994834302	10.3717543617554	9.86112738278456	9.46098053529826	7.16316443117357	7.19630974732999	8.71043855351558	8.57622619963272	8.78831695496237	8.78711051407869
sufB	9.70202613670636	9.92084658470487	10.0232918272927	10.3518507565759	9.47725557041956	9.79739522908027	8.51430332472364	9.10501491529099	9.44017639662386	9.25534835829916	8.86104348728705	8.90621250906961
sufD	10.3829906610532	10.088585550656	10.3051683982556	10.2877238579689	9.97639279566312	10.2746292044351	8.94848609835053	9.71059328041728	9.46467075140552	9.22105728071405	9.12731223723088	8.95123010201945
sufC	9.96673079163844	9.06808060860327	9.14467780134104	10.1330541415813	8.93182293453669	9.13883423758512	6.45397757384455	7.37648904488546	8.3330753496219	8.1646099556737	8.2740035298857	8.32083335398609
mecA	9.97324192438334	9.17189584132835	9.0528203761895	10.3429157964906	9.54966532681789	9.27009105231877	5.89535803699778	6.29233834974579	8.06449008623138	8.13544798134018	7.03223872255841	7.55785178586848
gap	15.9936655309429	15.3957929550931	15.3328311345128	15.4605115203352	15.7586629641767	15.6241738594314	14.4799213590522	13.9754731984674	13.8133168194251	12.7420051433566	15.677676007471	16.123759532148
fusA	14.5294512805191	13.8854546080963	14.1486112033666	13.7851332371044	14.4214787865169	14.1208817592704	13.510096978554	13.7581248626015	13.3218821178756	13.4038776051022	13.7050561437967	13.7107306755442
rpsG	12.4573590415399	11.6810219919159	11.977499292661	11.5619531625336	12.0135112560737	11.4622676637012	10.8891846153856	11.2165260416917	11.0295877886204	11.3658401056628	10.164393813482	9.95163384111519
purR	11.0314270048267	10.4850340090047	10.3598060254782	11.6161085721435	10.9531459347268	10.4553276675178	10.0654176595979	9.23914228181717	10.1216850751238	9.87849955979027	10.6090565450612	10.4323488798215
rsgA	10.2266744349295	9.806877515768	9.62380891813962	10.7029355778747	9.85626645794595	10.0144896274371	11.1213308034477	9.68184918799999	10.4751088643004	9.7224407142422	11.7448708020849	12.1538462197772
rsmA	8.99571094343824	9.15087510685071	9.22884192293628	9.91678223490743	8.87178205436861	8.88089182782064	9.32510331271205	10.0517772367433	9.7910380542765	9.87375307896473	8.42334973782844	8.38040062593491
rnmV	8.4563929748915	8.54063453893919	8.57685938037211	9.20722033609677	8.34864080394493	8.22025579895402	8.50554237214512	9.23978901192211	8.95844228002822	8.96720934265443	7.60917479770185	7.44792050346437
rnpA	10.0585618741138	9.17293888092106	8.79192927116698	10.3459002692294	9.4749511670238	8.82924524146737	7.01582843026229	6.55183307037327	8.5255070421539	8.24766971381913	8.47274228336088	8.55891213927467
radA	10.6476897900699	10.3290906470372	9.97700127294286	11.3086778702948	10.3776966123284	9.50880448587976	6.91357472826619	7.98227497042435	9.62995669215286	9.66119282814304	7.08924039109048	7.62253446201254
galU	11.0336275612607	11.4250877074769	11.5971814735908	11.579492379361	10.9747136151432	11.345717582905	11.6717335907584	12.0718235478865	11.8469484853395	11.902755333788	11.3555804649032	11.7001148624851
emm	15.6543266361021	15.7463194059699	15.3017057865272	15.6020663643925	15.3542092922924	14.4298512082049	15.1268467904096	15.6643874904732	15.1759698409336	14.6272429452744	14.6118166405435	14.0344635701776
speB	4.70937651429517	7.48572667958074	5.99920819517498	9.44845516209562	5.62258248196687	5.46308327303423	3.63250336130182	5.54453523967858	7.91346487990459	7.90364161854731	5.65416031968304	6.2367105230361
sdaB	11.6008131538267	11.7580193049067	12.1151415964722	10.3658855704568	13.3588127548657	12.9019788678085	13.7033861145525	12.222079877425	12.2634802585858	12.3013845533325	13.4570350367614	13.388367383315
secE	9.87480470037266	8.6207905362795	8.9088741366472	8.97056262124288	8.91746966598786	9.30888046689389	8.48149092084617	8.23152330062204	7.96859105635418	8.29103714188624	9.60423915274202	9.71999724015836
groL	12.3476999893334	14.3739157971653	14.2212721802162	12.7965359660842	13.3421967928699	14.5534827364317	13.5636823944536	13.9601760420898	13.1638007484704	13.4598354214071	12.0065693247438	13.0713738497287
ahpC	12.1054486679362	10.343521608154	10.5972133849292	11.5637167106738	12.2286521253027	11.5405679435191	13.3548801524421	11.3342980718811	11.8145916985968	11.5822475393865	15.219077321995	14.0921869938267
ahpF	13.7135138358455	12.1151475264962	12.391897806846	13.2870239682419	13.8335518821204	13.2068176634317	15.186632188439	12.9383855340689	13.4664958037323	13.4401908529292	16.8394664397811	15.7016128871405
ftcD	2.74951577626074	6.52109724611396	5.2285700247435	8.65999907227554	4.02492231817605	4.32988136113134	5.12330621853651	5.33776594708786	6.97617727501134	7.08155303768458	5.91181999276493	6.44562922602051
hutH	4.70937651429517	7.81991579337223	6.97245401945567	9.93076386428216	6.00127159938202	5.56462611374142	6.55447858459976	6.7788294183295	8.51813517232356	8.72970517254399	7.00879213207714	7.54188666973641
rpsB	11.6723489165118	10.9974222590295	11.5625516034046	11.4890768081363	11.3801244855776	11.0127151469065	9.78888353488739	10.4033588635778	9.81429789206163	9.8713739696905	8.14193062032661	8.66590305290688
treC	5.90631320400975	8.66445877923432	7.64036379739894	10.6732440261941	6.60481481135032	6.68650671553147	6.97288968647541	7.16396416772995	9.24634384936164	9.32605267926031	7.27759657188565	7.45929832205766
treB	7.54262410974857	9.81792160352479	8.75354144948693	11.7478809796872	7.95287413805308	7.92067994537146	9.18476717558688	9.00964403088084	10.4617216138193	10.5139806743515	9.1163840214729	8.94416150986312
treR	5.95046326979472	6.88415611648836	6.16896144887566	8.83694086527795	5.73469847186581	5.57214890639051	4.34398378932956	5.46711559323817	7.1291775503356	7.14370707404795	4.93849563214237	5.49178120436938
yaaA	9.67737408038689	9.45089898352364	9.32334639593902	10.9831699523241	9.25354250099723	8.79107389099346	7.85523409062666	8.01135165985661	9.46594847972332	9.48522036232467	8.77100017943255	8.82498459797104
nrdG	14.1059112047801	13.285625289703	13.3377439024806	14.2781115469381	13.8026167759101	12.4250855005643	11.7373454470689	11.7753943635664	11.8027582340679	12.8772647671878	10.0598978145117	9.95666031091686
nrdD	14.6764211564021	15.3426659998119	15.6614822002685	14.525143722901	15.1763963083941	14.7821511728804	14.3865766173769	15.3836346533076	14.8916310438477	14.6546407036327	13.4273602511499	12.9832345405256
ruvX	14.2126034660845	13.3272970826618	12.7625475476182	14.0333977513526	13.9099334207085	13.4227053552795	10.6945179851526	8.49580294655034	9.33362214461309	8.11835167655126	13.0462053190197	13.1551477978175
recA	13.2093069867069	12.1765640999587	11.7413709792151	12.6589452042024	12.1835879573877	12.6788810697634	9.78681901475408	9.25778074214563	9.76584171219572	9.53888898463112	11.9656743481285	12.3170299709103
ruvA	8.68264561115217	8.77574669394997	8.75048699471537	8.77185581569795	8.75127768103785	8.81187531069501	7.87285879887775	8.21319901054119	8.38668168036782	8.97419481868109	7.39075909111229	7.86210226343282
mutL	11.3370676268711	11.3122283891984	11.1038395704558	11.9237136450831	11.3054127293423	11.2400286759905	9.15786250042616	10.0744325561073	10.3955406391345	10.5745701776252	9.67359771100413	9.79768237861669
mutS	10.1667820239826	10.391803223142	10.5895420643767	11.1703175587352	9.98775188808464	9.78206990546741	9.70773192533419	10.7584851266419	10.7830591570682	10.7461352326368	8.94373629144666	9.30814846652492
argR	7.66122674258982	8.17987079308695	8.09875983759207	9.23082218559598	7.67627754233262	7.8057277094399	7.476653522873	8.74026337298801	8.53649469567872	8.27980440560764	7.31312518162748	7.73914041391407
aspS	11.7347678341717	11.1658855634202	10.8562289753682	11.8523140189219	11.6034349124383	10.9121952864178	10.0487152354713	10.8092570698894	10.8339218879037	10.8863796983573	10.1850248197877	10.0025863292542
rpmF	10.1077805248222	9.55817259915537	9.66940003133939	10.1139234567373	9.28610974875393	9.2798866173002	5.21214151039383	4.90082362933631	6.86046657325824	7.11411510811787	5.19546473514247	5.67859951205363
cadX	5.66269124828206	7.01089047486816	6.40093062382942	8.98499254094603	6.05779576388804	4.91911560024082	3.73884903794806	4.95223780463233	7.2288811930792	7.06261075827304	5.10990004166237	5.27712138255351
rpsD	10.9537635297752	10.1324073339281	10.6947882261454	9.41260915704186	10.9200716703613	10.4540558481705	8.73380216852563	9.36482124151789	9.0404898721902	8.93892420985829	8.04728703186432	8.12756402447753
dnaB	12.9444484109479	12.3423060412013	11.950552732541	12.7375349111686	12.5435834421602	12.4815410094642	10.0439691217305	10.7147273163663	10.8144937697331	10.7620007186603	10.1075838155628	9.96016844871517
mnmG	11.2454250525157	10.8955856740051	11.1172402787841	11.4540652826541	10.836827583923	10.4499784754895	8.27606414002058	8.74573762733658	9.59709755988859	9.54273867135545	7.71196452301098	8.0712085630675
mnmA	11.0148149638006	10.8679965750499	10.2591657609643	11.514001363424	10.4501661649388	10.7652932367741	9.06976136063808	9.87780699450574	10.2173453876983	10.4182733258395	7.77354706195463	9.15651223481133
sdaAB	8.53719819808801	8.87393934871737	8.52059655969416	9.66406777753395	8.23748271339578	7.91033033782415	7.71244374662816	7.23055131051005	8.31191527035414	8.04906892010243	8.06634046289136	7.89389505896209
sdaAA	8.97372234598859	8.88798135222233	8.8176949925705	9.48884250898111	8.66596984458221	8.07822981367453	9.2003622039001	8.4495888467334	8.7829711915966	8.48757911861691	8.98136435640968	8.48290598956136
pgsA	9.58586687716436	9.01264768222543	8.91979180562907	9.57593983636415	9.67239957335293	9.10357877809387	5.71602873244221	5.80442135516845	6.87976873403433	6.96907391714802	7.08176904228795	7.39557981660638
hasA	6.61545326619493	8.13989064402608	7.69699173212352	9.61913557912837	6.64636505727527	5.80066277745342	4.32134098581814	5.83213264873621	8.28899710880268	7.96995060726576	5.89486634781809	6.2367105230361
hasB	6.64645870798657	8.33049016607424	8.27383964028652	9.62528989558577	6.83786236992563	5.51864649465599	3.90033245208996	6.05427713285521	8.25096068219408	7.88489306054381	6.040721425678	6.06860122051142
hasC	7.37456688785949	8.56149319928262	8.76266620332484	9.607991215106	7.22826481904298	6.32618952883434	5.8876725275349	6.70581272755887	8.28610656949318	8.13204488962362	5.81600846650997	6.43414266142128
recF	9.55861929586031	9.15457591495463	9.14525934555477	10.1989072950117	9.11464288771118	8.78380294779204	7.65474748869903	7.72764198940344	8.62951144243096	8.43607497284778	8.45260854951058	8.92274552843184
guaB	13.6995203010523	12.5649771779713	12.7746727717725	13.1316806953958	13.8884500579048	12.3419216781032	10.7795135945243	11.0202683536161	10.7688940649356	10.7796886012597	9.89756950787601	9.55944202386855
trpS	11.0523788837282	10.3052685783651	9.96749645567339	11.2264541798625	11.3711686445189	10.0002698805375	7.31127341262289	7.16396416772995	8.83532074681582	8.49642835152507	7.43833835160852	7.32270067350712
rlmH	8.2179192005211	8.51946987185659	7.76365149042455	10.1091008835167	8.10367769514376	7.89990594744867	5.89535803699778	6.08339372318505	8.20119302721215	7.84803224951493	7.21408960376237	7.90849528524665
